Homework 4 Problem 2: Plotly
…
## The following object is masked from 'package:tidyr':
## 
##     extract

data("ny_noaa")

ny_noaa %>% 
  slice_sample(n=1000) %>%
  separate(date, into = c("year", "month", "day"), convert = TRUE) %>%
  mutate(tmax = as.numeric(tmax)/10,tmin = as.numeric(tmin)/10)

## # A tibble: 1,000 x 9
##    id           year month   day  prcp  snow  snwd  tmax  tmin
##    <chr>       <int> <int> <int> <int> <int> <int> <dbl> <dbl>
##  1 US1NYOT0011  2009    12    12     3     0   140  NA    NA  
##  2 USC00301521  2005     7    19    25     0     0  NA    NA  
##  3 US1NYCM0004  2008     7     9     0     0    NA  NA    NA  
##  4 USC00302129  1981     3    25    18     0     0  10     0.6
##  5 USC00300331  2002    11     8     0     0     0   7.8  -3.3
##  6 USC00306464  1981     9    23    53     0     0  NA    NA  
##  7 USW00014750  1986    10     2    15     0     0  15.6  11.7
##  8 US1NYST0003  2009     1    17     0     0   165  NA    NA  
##  9 USC00305512  1986     9    21     0     0     0  17.8  11.7
## 10 USC00308248  2007     9     2     0     0     0  NA    NA  
## # … with 990 more rows
…
